{
    "breadcrumbs.enabled": false,
    "editor.guides.indentation": false,
    "editor.hideCursorInOverviewRuler": true,
    "editor.scrollbar.verticalScrollbarSize": 0,
    "editor.lineNumbers": "off",
    "editor.minimap.enabled": false,
    "editor.renderWhitespace": "trailing",
    "editor.renderControlCharacters": false,
    "editor.scrollbar.vertical": "hidden",
    "files.autoSave": "afterDelay",
    "redhat.telemetry.enabled": false,
    "security.workspace.trust.untrustedFiles": "open",
    "workbench.activityBar.location": "hidden",
    "workbench.startupEditor": "none",
    "workbench.editor.limit.enabled": true,
    "workbench.editor.limit.perEditorGroup": true,
    "workbench.editor.limit.value": 1,
    "workbench.editor.editorActionsLocation": "hidden",
    "workbench.statusBar.visible": false,
    "window.menuBarVisibility": "toggle",
    "workbench.colorCustomizations": {
        "editor.background": "#09090a",
        "button.background": "#323238",
        "button.hoverBackground": "#575761",
        "sideBar.background": "#09090a",
        "sideBar.border": "#09090a",
        "editorGroupHeader.tabsBackground": "#09090a",
        "editorGroupHeader.tabsBorder": "#09090a",
        "tab.activeBackground": "#09090a",
        "tab.border": "#09090a",
        "tab.activeBorder": "#09090a",
        "tab.activeBorderTop": "#09090a"
    },
}
